^C:\USERS\EMMAN\SOURCE\REPOS\EXERCISE 4\EXERCISE 4\X64\DEBUG\SOURCE.OBJ
C:\USERS\EMMAN\SOURCE\REPOS\EXERCISE 4\X64\DEBUG\EXERCISE 4.EXE
C:\USERS\EMMAN\SOURCE\REPOS\EXERCISE 4\X64\DEBUG\EXERCISE 4.ILK
C:\USERS\EMMAN\SOURCE\REPOS\EXERCISE 4\X64\DEBUG\EXERCISE 4.PDB
