^C:\USERS\EMMAN\SOURCE\REPOS\BASRPG2 FINALS\BASRPG2 FINALS\SOURCE.CPP
/c /ZI /JMC /nologo /W3 /WX- /diagnostics:column /sdl /Od /Oy- /D _MBCS /Gm- /EHsc /RTC1 /MDd /GS /fp:precise /permissive- /Zc:wchar_t /Zc:forScope /Zc:inline /Fo"DEBUG\\" /Fd"DEBUG\VC142.PDB" /Gd /TP /analyze- /FC C:\USERS\EMMAN\SOURCE\REPOS\BASRPG2 FINALS\BASRPG2 FINALS\SOURCE.CPP
^C:\USERS\EMMAN\SOURCE\REPOS\BASRPG2 FINALS\BASRPG2 FINALS\STATS2.CPP
/c /ZI /JMC /nologo /W3 /WX- /diagnostics:column /sdl /Od /Oy- /D _MBCS /Gm- /EHsc /RTC1 /MDd /GS /fp:precise /permissive- /Zc:wchar_t /Zc:forScope /Zc:inline /Fo"DEBUG\\" /Fd"DEBUG\VC142.PDB" /Gd /TP /analyze- /FC C:\USERS\EMMAN\SOURCE\REPOS\BASRPG2 FINALS\BASRPG2 FINALS\STATS2.CPP
^C:\USERS\EMMAN\SOURCE\REPOS\BASRPG2 FINALS\BASRPG2 FINALS\BOMB.CPP
/c /ZI /JMC /nologo /W3 /WX- /diagnostics:column /sdl /Od /Oy- /D _MBCS /Gm- /EHsc /RTC1 /MDd /GS /fp:precise /permissive- /Zc:wchar_t /Zc:forScope /Zc:inline /Fo"DEBUG\\" /Fd"DEBUG\VC142.PDB" /Gd /TP /analyze- /FC C:\USERS\EMMAN\SOURCE\REPOS\BASRPG2 FINALS\BASRPG2 FINALS\BOMB.CPP
^C:\USERS\EMMAN\SOURCE\REPOS\BASRPG2 FINALS\BASRPG2 FINALS\CRYSTAL.CPP
/c /ZI /JMC /nologo /W3 /WX- /diagnostics:column /sdl /Od /Oy- /D _MBCS /Gm- /EHsc /RTC1 /MDd /GS /fp:precise /permissive- /Zc:wchar_t /Zc:forScope /Zc:inline /Fo"DEBUG\\" /Fd"DEBUG\VC142.PDB" /Gd /TP /analyze- /FC C:\USERS\EMMAN\SOURCE\REPOS\BASRPG2 FINALS\BASRPG2 FINALS\CRYSTAL.CPP
^C:\USERS\EMMAN\SOURCE\REPOS\BASRPG2 FINALS\BASRPG2 FINALS\HP.CPP
/c /ZI /JMC /nologo /W3 /WX- /diagnostics:column /sdl /Od /Oy- /D _MBCS /Gm- /EHsc /RTC1 /MDd /GS /fp:precise /permissive- /Zc:wchar_t /Zc:forScope /Zc:inline /Fo"DEBUG\\" /Fd"DEBUG\VC142.PDB" /Gd /TP /analyze- /FC C:\USERS\EMMAN\SOURCE\REPOS\BASRPG2 FINALS\BASRPG2 FINALS\HP.CPP
^C:\USERS\EMMAN\SOURCE\REPOS\BASRPG2 FINALS\BASRPG2 FINALS\ITEM.CPP
/c /ZI /JMC /nologo /W3 /WX- /diagnostics:column /sdl /Od /Oy- /D _MBCS /Gm- /EHsc /RTC1 /MDd /GS /fp:precise /permissive- /Zc:wchar_t /Zc:forScope /Zc:inline /Fo"DEBUG\\" /Fd"DEBUG\VC142.PDB" /Gd /TP /analyze- /FC C:\USERS\EMMAN\SOURCE\REPOS\BASRPG2 FINALS\BASRPG2 FINALS\ITEM.CPP
^C:\USERS\EMMAN\SOURCE\REPOS\BASRPG2 FINALS\BASRPG2 FINALS\PLAYER.CPP
/c /ZI /JMC /nologo /W3 /WX- /diagnostics:column /sdl /Od /Oy- /D _MBCS /Gm- /EHsc /RTC1 /MDd /GS /fp:precise /permissive- /Zc:wchar_t /Zc:forScope /Zc:inline /Fo"DEBUG\\" /Fd"DEBUG\VC142.PDB" /Gd /TP /analyze- /FC C:\USERS\EMMAN\SOURCE\REPOS\BASRPG2 FINALS\BASRPG2 FINALS\PLAYER.CPP
^C:\USERS\EMMAN\SOURCE\REPOS\BASRPG2 FINALS\BASRPG2 FINALS\R.CPP
/c /ZI /JMC /nologo /W3 /WX- /diagnostics:column /sdl /Od /Oy- /D _MBCS /Gm- /EHsc /RTC1 /MDd /GS /fp:precise /permissive- /Zc:wchar_t /Zc:forScope /Zc:inline /Fo"DEBUG\\" /Fd"DEBUG\VC142.PDB" /Gd /TP /analyze- /FC C:\USERS\EMMAN\SOURCE\REPOS\BASRPG2 FINALS\BASRPG2 FINALS\R.CPP
^C:\USERS\EMMAN\SOURCE\REPOS\BASRPG2 FINALS\BASRPG2 FINALS\SR.CPP
/c /ZI /JMC /nologo /W3 /WX- /diagnostics:column /sdl /Od /Oy- /D _MBCS /Gm- /EHsc /RTC1 /MDd /GS /fp:precise /permissive- /Zc:wchar_t /Zc:forScope /Zc:inline /Fo"DEBUG\\" /Fd"DEBUG\VC142.PDB" /Gd /TP /analyze- /FC C:\USERS\EMMAN\SOURCE\REPOS\BASRPG2 FINALS\BASRPG2 FINALS\SR.CPP
^C:\USERS\EMMAN\SOURCE\REPOS\BASRPG2 FINALS\BASRPG2 FINALS\SSR.CPP
/c /ZI /JMC /nologo /W3 /WX- /diagnostics:column /sdl /Od /Oy- /D _MBCS /Gm- /EHsc /RTC1 /MDd /GS /fp:precise /permissive- /Zc:wchar_t /Zc:forScope /Zc:inline /Fo"DEBUG\\" /Fd"DEBUG\VC142.PDB" /Gd /TP /analyze- /FC C:\USERS\EMMAN\SOURCE\REPOS\BASRPG2 FINALS\BASRPG2 FINALS\SSR.CPP
^C:\USERS\EMMAN\SOURCE\REPOS\BASRPG2 FINALS\BASRPG2 FINALS\MAIN.CPP
/c /ZI /JMC /nologo /W3 /WX- /diagnostics:column /sdl /Od /Oy- /D _MBCS /Gm- /EHsc /RTC1 /MDd /GS /fp:precise /permissive- /Zc:wchar_t /Zc:forScope /Zc:inline /Fo"DEBUG\\" /Fd"DEBUG\VC142.PDB" /Gd /TP /analyze- /FC C:\USERS\EMMAN\SOURCE\REPOS\BASRPG2 FINALS\BASRPG2 FINALS\MAIN.CPP
