^C:\USERS\EMMAN\SOURCE\REPOS\EX 1-1\EX 1-1\DEBUG\EX 1-1.OBJ
C:\USERS\EMMAN\SOURCE\REPOS\EX 1-1\DEBUG\EX 1-1.EXE
C:\USERS\EMMAN\SOURCE\REPOS\EX 1-1\DEBUG\EX 1-1.ILK
C:\USERS\EMMAN\SOURCE\REPOS\EX 1-1\DEBUG\EX 1-1.PDB
