^C:\USERS\EMMAN\SOURCE\REPOS\EX 1-2\EX 1-2\EX 1-2.CPP
C:\USERS\EMMAN\SOURCE\REPOS\EX 1-2\EX 1-2\DEBUG\VC142.PDB
C:\USERS\EMMAN\SOURCE\REPOS\EX 1-2\EX 1-2\DEBUG\VC142.IDB
C:\USERS\EMMAN\SOURCE\REPOS\EX 1-2\EX 1-2\DEBUG\EX 1-2.OBJ
