^C:\USERS\EMMAN\SOURCE\REPOS\SUGGEST A PACKAGE\SUGGEST A PACKAGE\DEBUG\SOURCE.OBJ
C:\USERS\EMMAN\SOURCE\REPOS\SUGGEST A PACKAGE\DEBUG\SUGGEST A PACKAGE.EXE
C:\USERS\EMMAN\SOURCE\REPOS\SUGGEST A PACKAGE\DEBUG\SUGGEST A PACKAGE.ILK
C:\USERS\EMMAN\SOURCE\REPOS\SUGGEST A PACKAGE\DEBUG\SUGGEST A PACKAGE.PDB
